Combined dataset
…
Getting data from the 2011-2015 5-year ACS

Getting data from the 2012-2016 5-year ACS

Getting data from the 2013-2017 5-year ACS

Getting data from the 2014-2018 5-year ACS

Getting data from the 2015-2019 5-year ACS

Getting data from the 2019-2023 5-year ACS

[[1]]
# A tibble: 3,220 × 17
   GEOID NAME                      year male_pct median_age white_pct family_pct
   <chr> <chr>                    <dbl>    <dbl>      <dbl>     <dbl>      <dbl>
 1 01001 Autauga County, Alabama   2015    0.484       37.7     0.758      0.697
 2 01003 Baldwin County, Alabama   2015    0.488       42.2     0.831      0.678
 3 01005 Barbour County, Alabama   2015    0.538       38.8     0.462      0.657
 4 01007 Bibb County, Alabama      2015    0.534       38.9     0.745      0.754
 5 01009 Blount County, Alabama    2015    0.494       40.7     0.879      0.751
 6 01011 Bullock County, Alabama   2015    0.530       39.3     0.222      0.633
 7 01013 Butler County, Alabama    2015    0.467       40.5     0.533      0.654
 8 01015 Calhoun County, Alabama   2015    0.482       39.1     0.730      0.677
 9 01017 Chambers County, Alabama  2015    0.477       43       0.573      0.626
10 01019 Cherokee County, Alabama  2015    0.499       45.4     0.917      0.725
# ℹ 3,210 more rows
# ℹ 10 more variables: bachelor_or_higher_pct <dbl>, poverty_pct <dbl>,
#   disabled_pct <dbl>, snap_pct <dbl>, renter_pct <dbl>,
#   median_income_individual <dbl>, median_household_income <dbl>,
#   snap_recipient_hh_prior12 <dbl>, non_citizen_pct <dbl>, over_65_pct <dbl>

[[2]]
# A tibble: 3,220 × 17
   GEOID NAME                      year male_pct median_age white_pct family_pct
   <chr> <chr>                    <dbl>    <dbl>      <dbl>     <dbl>      <dbl>
 1 01001 Autauga County, Alabama   2016    0.488       37.8     0.757      0.704
 2 01003 Baldwin County, Alabama   2016    0.488       42.3     0.832      0.668
 3 01005 Barbour County, Alabama   2016    0.535       38.7     0.459      0.654
 4 01007 Bibb County, Alabama      2016    0.535       40.2     0.748      0.748
 5 01009 Blount County, Alabama    2016    0.495       40.8     0.877      0.749
 6 01011 Bullock County, Alabama   2016    0.542       39.2     0.217      0.652
 7 01013 Butler County, Alabama    2016    0.470       40.6     0.528      0.670
 8 01015 Calhoun County, Alabama   2016    0.481       39.1     0.730      0.681
 9 01017 Chambers County, Alabama  2016    0.479       43.1     0.567      0.625
10 01019 Cherokee County, Alabama  2016    0.497       45.7     0.919      0.720
# ℹ 3,210 more rows
# ℹ 10 more variables: bachelor_or_higher_pct <dbl>, poverty_pct <dbl>,
#   disabled_pct <dbl>, snap_pct <dbl>, renter_pct <dbl>,
#   median_income_individual <dbl>, median_household_income <dbl>,
#   snap_recipient_hh_prior12 <dbl>, non_citizen_pct <dbl>, over_65_pct <dbl>

[[3]]
# A tibble: 3,220 × 17
   GEOID NAME                      year male_pct median_age white_pct family_pct
   <chr> <chr>                    <dbl>    <dbl>      <dbl>     <dbl>      <dbl>
 1 01001 Autauga County, Alabama   2017    0.489       37.8     0.754      0.708
 2 01003 Baldwin County, Alabama   2017    0.489       42.6     0.831      0.657
 3 01005 Barbour County, Alabama   2017    0.533       39.7     0.457      0.657
 4 01007 Bibb County, Alabama      2017    0.543       39.8     0.746      0.767
 5 01009 Blount County, Alabama    2017    0.494       40.9     0.874      0.740
 6 01011 Bullock County, Alabama   2017    0.536       40.8     0.216      0.660
 7 01013 Butler County, Alabama    2017    0.468       40.7     0.522      0.648
 8 01015 Calhoun County, Alabama   2017    0.481       39.1     0.727      0.681
 9 01017 Chambers County, Alabama  2017    0.481       43       0.562      0.635
10 01019 Cherokee County, Alabama  2017    0.497       46.1     0.918      0.701
# ℹ 3,210 more rows
# ℹ 10 more variables: bachelor_or_higher_pct <dbl>, poverty_pct <dbl>,
#   disabled_pct <dbl>, snap_pct <dbl>, renter_pct <dbl>,
#   median_income_individual <dbl>, median_household_income <dbl>,
#   snap_recipient_hh_prior12 <dbl>, non_citizen_pct <dbl>, over_65_pct <dbl>

[[4]]
# A tibble: 3,220 × 17
   GEOID NAME                      year male_pct median_age white_pct family_pct
   <chr> <chr>                    <dbl>    <dbl>      <dbl>     <dbl>      <dbl>
 1 01001 Autauga County, Alabama   2018    0.487       37.8     0.750      0.718
 2 01003 Baldwin County, Alabama   2018    0.486       42.8     0.830      0.653
 3 01005 Barbour County, Alabama   2018    0.531       39.9     0.461      0.656
 4 01007 Bibb County, Alabama      2018    0.539       39.9     0.746      0.723
 5 01009 Blount County, Alabama    2018    0.493       40.8     0.871      0.733
 6 01011 Bullock County, Alabama   2018    0.547       39.6     0.215      0.687
 7 01013 Butler County, Alabama    2018    0.468       40.7     0.519      0.660
 8 01015 Calhoun County, Alabama   2018    0.481       39.7     0.725      0.685
 9 01017 Chambers County, Alabama  2018    0.481       43       0.558      0.641
10 01019 Cherokee County, Alabama  2018    0.496       45.9     0.918      0.691
# ℹ 3,210 more rows
# ℹ 10 more variables: bachelor_or_higher_pct <dbl>, poverty_pct <dbl>,
#   disabled_pct <dbl>, snap_pct <dbl>, renter_pct <dbl>,
#   median_income_individual <dbl>, median_household_income <dbl>,
#   snap_recipient_hh_prior12 <dbl>, non_citizen_pct <dbl>, over_65_pct <dbl>

[[5]]
# A tibble: 3,220 × 17
   GEOID NAME                      year male_pct median_age white_pct family_pct
   <chr> <chr>                    <dbl>    <dbl>      <dbl>     <dbl>      <dbl>
 1 01001 Autauga County, Alabama   2019    0.486       38.2     0.746      0.705
 2 01003 Baldwin County, Alabama   2019    0.486       43       0.831      0.661
 3 01005 Barbour County, Alabama   2019    0.529       40.4     0.458      0.662
 4 01007 Bibb County, Alabama      2019    0.540       40.9     0.745      0.695
 5 01009 Blount County, Alabama    2019    0.494       40.7     0.869      0.713
 6 01011 Bullock County, Alabama   2019    0.544       40.2     0.214      0.711
 7 01013 Butler County, Alabama    2019    0.458       40.8     0.516      0.666
 8 01015 Calhoun County, Alabama   2019    0.481       39.6     0.721      0.672
 9 01017 Chambers County, Alabama  2019    0.478       42       0.555      0.636
10 01019 Cherokee County, Alabama  2019    0.493       46.5     0.917      0.681
# ℹ 3,210 more rows
# ℹ 10 more variables: bachelor_or_higher_pct <dbl>, poverty_pct <dbl>,
#   disabled_pct <dbl>, snap_pct <dbl>, renter_pct <dbl>,
#   median_income_individual <dbl>, median_household_income <dbl>,
#   snap_recipient_hh_prior12 <dbl>, non_citizen_pct <dbl>, over_65_pct <dbl>

[[6]]
# A tibble: 3,222 × 17
   GEOID NAME                      year male_pct median_age white_pct family_pct
   <chr> <chr>                    <dbl>    <dbl>      <dbl>     <dbl>      <dbl>
 1 01001 Autauga County, Alabama   2023    0.484       39.2     0.717      0.696
 2 01003 Baldwin County, Alabama   2023    0.489       43.7     0.814      0.682
 3 01005 Barbour County, Alabama   2023    0.521       40.7     0.437      0.660
 4 01007 Bibb County, Alabama      2023    0.534       41.3     0.737      0.695
 5 01009 Blount County, Alabama    2023    0.505       40.9     0.850      0.711
 6 01011 Bullock County, Alabama   2023    0.547       40.4     0.211      0.613
 7 01013 Butler County, Alabama    2023    0.460       42.2     0.507      0.634
 8 01015 Calhoun County, Alabama   2023    0.483       39       0.698      0.621
 9 01017 Chambers County, Alabama  2023    0.467       41.5     0.539      0.667
10 01019 Cherokee County, Alabama  2023    0.493       47.4     0.907      0.653
# ℹ 3,212 more rows
# ℹ 10 more variables: bachelor_or_higher_pct <dbl>, poverty_pct <dbl>,
#   disabled_pct <dbl>, snap_pct <dbl>, renter_pct <dbl>,
#   median_income_individual <dbl>, median_household_income <dbl>,
#   snap_recipient_hh_prior12 <dbl>, non_citizen_pct <dbl>, over_65_pct <dbl>
…
At the county level, SNAP participation rates varied widely. Owsley County, Kentucky and Perry County, Alabama repeatedly appeared among those with the highest rates, exceeding 70% in some years. In contrast, counties like Ellis County, Oklahoma, Alexander County, Illinois, and Brooke County, West Virginia recorded the lowest rates, with values of 0%. These results highlight pronounced local disparities in program participation, even within states.

Summary of counties with 0% participation rate

zero_participation_list <- snap_2model |>
  filter( year <= 2019, snap_participation_rate == 0) |>
  select(year, NAME, state_name, snap_participation_rate) |>
  arrange(year, state_name, NAME)

print(zero_participation_list)

# A tibble: 60 × 4
    year NAME                          state_name snap_participation_rate
   <dbl> <chr>                         <chr>                        <dbl>
 1  2015 Prairie County, Montana       Montana                          0
 2  2015 Harding County, New Mexico    New Mexico                       0
 3  2015 Los Alamos County, New Mexico New Mexico                       0
 4  2015 Mora County, New Mexico       New Mexico                       0
 5  2015 Union County, New Mexico      New Mexico                       0
 6  2015 Ellis County, Oklahoma        Oklahoma                         0
 7  2016 Prairie County, Montana       Montana                          0
 8  2016 Harding County, New Mexico    New Mexico                       0
 9  2016 Los Alamos County, New Mexico New Mexico                       0
10  2016 Mora County, New Mexico       New Mexico                       0
# ℹ 50 more rows
…
