projectworkrevised
…
snap_all %>%
  mutate(five_digit = str_sub(region_code, 1, 5)) %>%
  count(five_digit) %>%
  arrange(five_digit)

# A tibble: 2,508 × 2
   five_digit     n
   <chr>      <int>
 1 01001         11
 2 01003         11
 3 01005         11
 4 01007         11
 5 01009         11
 6 01011         11
 7 01013         11
 8 01015         11
 9 01017         11
10 01019         11
# ℹ 2,498 more rows
…
