SNAP Policy Analysis
…
lm_best <- lm_res |>
  select_best(metric = "rmse")

saveRDS(lm_res, file = "lm_res.rds")

lm_wf |>
  finalize_workflow(lm_best) |>
  fit(snap_2019) |>
  extract_fit_parsnip() |>
  tidy()

# A tibble: 46 × 3
   term                    estimate      penalty
   <chr>                      <dbl>        <dbl>
 1 (Intercept)             0.198    0.0000000001
 2 snap_rate_acs          -0.0214   0.0000000001
 3 total_households        0.00352  0.0000000001
 4 male_pct               -0.000933 0.0000000001
 5 median_age              0.00840  0.0000000001
 6 white_pct              -0.0352   0.0000000001
 7 family_pct              0.00939  0.0000000001
 8 bachelor_or_higher_pct -0.0107   0.0000000001
 9 poverty_pct             0.0428   0.0000000001
10 disabled_pct            0.0114   0.0000000001
# ℹ 36 more rows
…
Testing Final Model

final_fit <- lm_wf |>
  finalize_workflow(parameters = lm_best) |>
  fit(data = snap_2019)

predictions <- bind_cols(
  snap_test,
  predict(object = final_fit, new_data = snap_test))

select(predictions, snap_participation_rate, .pred)

# A tibble: 1,420 × 2
   snap_participation_rate  .pred
                     <dbl>  <dbl>
 1                   0.161 0.126 
 2                   0.108 0.0828
 3                   0.329 0.284 
 4                   0.229 0.230 
 5                   0.153 0.140 
 6                   0.376 0.338 
 7                   0.357 0.262 
 8                   0.242 0.186 
 9                   0.263 0.222 
10                   0.184 0.142 
# ℹ 1,410 more rows
…
